{
  "ID": [
    "Telkomsel",
    "PT Telkom Indonesia",
    "XL Axiata"
  ],
  "TH": [
    "True Mobile",
    "AIS Mobile",
    "DTAC"
  ],
  "VN": [
    "Viettel Group",
    "MobiFone",
    "VNPT"
  ],
  "MY": [
    "Maxis Communications",
    "U Mobile Sdn Bhd",
    "Celcom Axiata Berhad"
  ]
}